^D:\USERS\OLEG\FINALTESTTASK1\FINALTESTTASK1\FINALTESTTASK1\FINALTESTTASK1.CPP
D:\USERS\OLEG\FINALTESTTASK1\FINALTESTTASK1\FINALTESTTASK1\X64\DEBUG\VC143.PDB
D:\USERS\OLEG\FINALTESTTASK1\FINALTESTTASK1\FINALTESTTASK1\X64\DEBUG\VC143.IDB
D:\USERS\OLEG\FINALTESTTASK1\FINALTESTTASK1\FINALTESTTASK1\X64\DEBUG\FINALTESTTASK1.OBJ
